WEEK_3 Report
…
1

Show code

  nrow(data1)

[1] 1232

Show code

  data1 %>% 
      group_by(Neighborhood) %>%
      summarize(count = n())  

# A tibble: 21 x 2
   Neighborhood count
   <chr>        <int>
 1 Blueste          6
 2 BrDale          29
 3 BrkSide         68
 4 ClearCr         22
 5 CollgCr         31
 6 Crawfor         49
 7 Edwards        120
 8 Gilbert          7
 9 Greens           6
10 IDOTRR          69
# … with 11 more rows

Show code

  nested_df<-data1 %>% 
    group_by(Neighborhood) %>%
    nest() %>% ungroup(Neighborhood)
    
  nested_df %>%
   mutate(model = map(data, ~lm(SalePrice ~ `Lot Area` + `Overall Qual` + `Garage Cars` , data=.))) %>%
    transmute(Neighborhood, map_df(model, ~summary(.)$coefficients[,1]))

# A tibble: 21 x 5
   Neighborhood `(Intercept)` `\`Lot Area\`` `\`Overall Qual\``
   <chr>                <dbl>          <dbl>              <dbl>
 1 NAmes                8410.           2.64             17871.
 2 Gilbert            184658.          -1.27              -679.
 3 NWAmes             -24896.           3.78              8823.
 4 BrDale             157231.          13.5             -13583.
 5 NPkVill            203369.          -3.86             -9548.
 6 SawyerW            162228.         -11.7               8045.
 7 Sawyer               9677.           2.03             17886.
 8 Greens             413043.         -57.8                 NA 
 9 BrkSide              2206.           3.65             16478.
10 OldTown             -4018.           2.70             15994.
# … with 11 more rows, and 1 more variable: `Garage Cars` <dbl>
…
The following is a multi-regression analysis model of houses by region using data from 1980 onwards.

Show code

  nrow(data2)

[1] 1698

Show code

  data2 %>% 
      group_by(Neighborhood) %>%
      summarize(count = n())  

# A tibble: 27 x 2
   Neighborhood count
   <chr>        <int>
 1 Blmngtn         28
 2 Blueste          4
 3 BrDale           1
 4 BrkSide         40
 5 ClearCr         22
 6 CollgCr        236
 7 Crawfor         54
 8 Edwards         74
 9 Gilbert        158
10 Greens           2
# … with 17 more rows

Show code

  nested_df2<-data2 %>% 
    group_by(Neighborhood) %>%
    nest() %>% ungroup(Neighborhood)

nested_df2 %>%
   mutate(model = map(data, ~lm(SalePrice ~ `Lot Area` + `Overall Qual` + `Garage Cars` , data=.))) 

# A tibble: 27 x 3
   Neighborhood data                model 
   <chr>        <list>              <list>
 1 Gilbert      <tibble [158 × 81]> <lm>  
 2 StoneBr      <tibble [51 × 81]>  <lm>  
 3 NWAmes       <tibble [46 × 81]>  <lm>  
 4 Somerst      <tibble [182 × 81]> <lm>  
 5 NAmes        <tibble [115 × 81]> <lm>  
 6 NridgHt      <tibble [166 × 81]> <lm>  
 7 Blmngtn      <tibble [28 × 81]>  <lm>  
 8 NoRidge      <tibble [71 × 81]>  <lm>  
 9 SawyerW      <tibble [107 × 81]> <lm>  
10 Sawyer       <tibble [47 × 81]>  <lm>  
# … with 17 more rows
…
