WEEK_5 Report
…
lasso_model <- 
    linear_reg(penalty = 0.01, mixture = 1) %>% # lasso: 1, ridge: 0
    set_engine("glmnet")

lasso_fit <- 
    lasso_model %>% 
    fit(sale_price ~ ., data = train2)

options(max.print = 10)
lasso_fit %>% 
    tidy() %>% 
    filter(estimate > 0.001)

# A tibble: 34 x 3
   term           estimate penalty
   <chr>             <dbl>   <dbl>
 1 (Intercept)    12.0        0.01
 2 lot_area        0.00901    0.01
 3 overall_qual    0.115      0.01
 4 overall_cond    0.0306     0.01
 5 year_built      0.0396     0.01
 6 year_remod_add  0.0216     0.01
 7 total_bsmt_sf   0.0202     0.01
 8 x1st_flr_sf     0.00233    0.01
 9 gr_liv_area     0.105      0.01
10 bsmt_full_bath  0.0175     0.01
# ... with 24 more rows
…
