Son's Predictive modelling: WEEK_7 Report
…
# Predictors: 0 
  # Outcomes: 0 
   Intercept: TRUE 
Novel Levels: FALSE 
 Composition: tibble 
  Indicators: traditional 

attr(,"class")
[1] "action_formula" "action_pre"     "action"        

$mold
$mold$predictors
# A tibble: 1,460 x 246
   `(Intercept)` ms_sub_class lot_frontage lot_area overall_qual
           <dbl>        <dbl>        <dbl>    <dbl>        <dbl>
 1             1       0.0733     -0.229    -0.207        0.651 
 2             1      -0.872       0.452    -0.0919      -0.0718
 3             1       0.0733     -0.0927    0.0735       0.651 
 4             1       0.310      -0.456    -0.0969       0.651 
 5             1       0.0733      0.634     0.375        1.37  
 6             1      -0.163       0.679     0.360       -0.795 
 7             1      -0.872       0.225    -0.0434       1.37  
 8             1       0.0733     -0.00187  -0.0135       0.651 
 9             1      -0.163      -0.865    -0.441        0.651 
10             1       3.15       -0.910    -0.310       -0.795 
# ... with 1,450 more rows, and 241 more variables:
#   overall_cond <dbl>, year_built <dbl>, year_remod_add <dbl>,
#   mas_vnr_area <dbl>, bsmt_fin_sf1 <dbl>, bsmt_fin_sf2 <dbl>,
#   bsmt_unf_sf <dbl>, total_bsmt_sf <dbl>, x1st_flr_sf <dbl>,
#   x2nd_flr_sf <dbl>, low_qual_fin_sf <dbl>, gr_liv_area <dbl>,
#   bsmt_full_bath <dbl>, bsmt_half_bath <dbl>, full_bath <dbl>,
#   half_bath <dbl>, bedroom_abv_gr <dbl>, kitchen_abv_gr <dbl>,
#   tot_rms_abv_grd <dbl>, fireplaces <dbl>, garage_yr_blt <dbl>,
#   garage_cars <dbl>, garage_area <dbl>, wood_deck_sf <dbl>,
…
$mold$outcomes
# A tibble: 1,460 x 1
   sale_price
        <dbl>
 1       12.2
 2       12.1
 3       12.3
 4       11.8
 5       12.4
 6       11.9
 7       12.6
 8       12.2
 9       11.8
10       11.7
# ... with 1,450 more rows
…
# Predictors: 0 
  # Outcomes: 0 
   Intercept: TRUE 
Novel Levels: FALSE 
 Composition: tibble 
  Indicators: traditional 

attr(,"class")
[1] "action_formula" "action_pre"     "action"        

$mold
$mold$predictors
# A tibble: 1,460 x 246
   `(Intercept)` ms_sub_class lot_frontage lot_area overall_qual
           <dbl>        <dbl>        <dbl>    <dbl>        <dbl>
 1             1       0.0733     -0.229    -0.207        0.651 
 2             1      -0.872       0.452    -0.0919      -0.0718
 3             1       0.0733     -0.0927    0.0735       0.651 
 4             1       0.310      -0.456    -0.0969       0.651 
 5             1       0.0733      0.634     0.375        1.37  
 6             1      -0.163       0.679     0.360       -0.795 
 7             1      -0.872       0.225    -0.0434       1.37  
 8             1       0.0733     -0.00187  -0.0135       0.651 
 9             1      -0.163      -0.865    -0.441        0.651 
10             1       3.15       -0.910    -0.310       -0.795 
# ... with 1,450 more rows, and 241 more variables:
#   overall_cond <dbl>, year_built <dbl>, year_remod_add <dbl>,
#   mas_vnr_area <dbl>, bsmt_fin_sf1 <dbl>, bsmt_fin_sf2 <dbl>,
#   bsmt_unf_sf <dbl>, total_bsmt_sf <dbl>, x1st_flr_sf <dbl>,
#   x2nd_flr_sf <dbl>, low_qual_fin_sf <dbl>, gr_liv_area <dbl>,
#   bsmt_full_bath <dbl>, bsmt_half_bath <dbl>, full_bath <dbl>,
#   half_bath <dbl>, bedroom_abv_gr <dbl>, kitchen_abv_gr <dbl>,
#   tot_rms_abv_grd <dbl>, fireplaces <dbl>, garage_yr_blt <dbl>,
#   garage_cars <dbl>, garage_area <dbl>, wood_deck_sf <dbl>,
…
$mold$outcomes
# A tibble: 1,460 x 1
   sale_price
        <dbl>
 1       12.2
 2       12.1
 3       12.3
 4       11.8
 5       12.4
 6       11.9
 7       12.6
 8       12.2
 9       11.8
10       11.7
# ... with 1,450 more rows
…
